ds202_hw2
…
## [1] 44

print("cars 1")

## [1] "cars 1"

library(ggplot2)
mpg

## # A tibble: 234 x 11
##    manufacturer model    displ  year   cyl trans   drv     cty   hwy fl    class
##    <chr>        <chr>    <dbl> <int> <int> <chr>   <chr> <int> <int> <chr> <chr>
##  1 audi         a4         1.8  1999     4 auto(l f        18    29 p     comp
##  2 audi         a4         1.8  1999     4 manual f        21    29 p     comp
##  3 audi         a4         2    2008     4 manual f        20    31 p     comp
##  4 audi         a4         2    2008     4 auto(a f        21    30 p     comp
##  5 audi         a4         2.8  1999     6 auto(l f        16    26 p     comp
##  6 audi         a4         2.8  1999     6 manual f        18    26 p     comp
##  7 audi         a4         3.1  2008     6 auto(a f        18    27 p     comp
##  8 audi         a4 quat   1.8  1999     4 manual 4        18    26 p     comp
##  9 audi         a4 quat   1.8  1999     4 auto(l 4        16    25 p     comp
## 10 audi         a4 quat   2    2008     4 manual 4        20    28 p     comp
## #  with 224 more rows

mpgA<- mpg[order(-mpg$hwy),]
mpgA

## # A tibble: 234 x 11
##    manufacturer model   displ  year   cyl trans   drv     cty   hwy fl    class 
##    <chr>        <chr>   <dbl> <int> <int> <chr>   <chr> <int> <int> <chr> <chr> 
##  1 volkswagen   jetta     1.9  1999     4 manual f        33    44 d     compa
##  2 volkswagen   new be   1.9  1999     4 manual f        35    44 d     subco
##  3 volkswagen   new be   1.9  1999     4 auto(l f        29    41 d     subco
##  4 toyota       corolla   1.8  2008     4 manual f        28    37 r     compa
##  5 honda        civic     1.8  2008     4 auto(l f        25    36 r     subco
##  6 honda        civic     1.8  2008     4 auto(l f        24    36 c     subco
##  7 toyota       corolla   1.8  1999     4 manual f        26    35 r     compa
##  8 toyota       corolla   1.8  2008     4 auto(l f        26    35 r     compa
##  9 honda        civic     1.8  2008     4 manual f        26    34 r     subco
## 10 honda        civic     1.6  1999     4 manual f        28    33 r     subco
## #  with 224 more rows
…
VWs Jetta 1999 33 MPG, New Beetle 1999 35 MPG and New Beetle 1999 Auto 29 MPG, are the best MPG performing models according to the data.

print("cars 2")

## [1] "cars 2"

mpgB <- mpg[mpg$class == "compact",]
mpgB

## # A tibble: 47 x 11
##    manufacturer model    displ  year   cyl trans   drv     cty   hwy fl    class
##    <chr>        <chr>    <dbl> <int> <int> <chr>   <chr> <int> <int> <chr> <chr>
##  1 audi         a4         1.8  1999     4 auto(l f        18    29 p     comp
##  2 audi         a4         1.8  1999     4 manual f        21    29 p     comp
##  3 audi         a4         2    2008     4 manual f        20    31 p     comp
##  4 audi         a4         2    2008     4 auto(a f        21    30 p     comp
##  5 audi         a4         2.8  1999     6 auto(l f        16    26 p     comp
##  6 audi         a4         2.8  1999     6 manual f        18    26 p     comp
##  7 audi         a4         3.1  2008     6 auto(a f        18    27 p     comp
##  8 audi         a4 quat   1.8  1999     4 manual 4        18    26 p     comp
##  9 audi         a4 quat   1.8  1999     4 auto(l 4        16    25 p     comp
## 10 audi         a4 quat   2    2008     4 manual 4        20    28 p     comp
## #  with 37 more rows
…
